/**
 * from: The target collection.
 * localField: The local join field.
 * foreignField: The target join field.
 * as: The name for the results.
 * pipeline: The pipeline to run on the joined collection.
 * let: Optional variables to use in the pipeline field stages.
 */
{
  from: 'order-details',
  localField: 'OrderID',
  foreignField: 'OrderID',
  as: 'orders'
}


_id:6229cab0a21502465d2eccae
OrderID:10248
ProductID:72
UnitPrice:34.8
Quantity:5
Discount:0
orders:Array
0:Object
_id:6229cab0a21502465d2eccae
OrderID:10248
ProductID:72
UnitPrice:34.8
Quantity:5
Discount:0
1:Object
_id:6229cab0a21502465d2eccb0
OrderID:10248
ProductID:11
UnitPrice:14
Quantity:12
Discount:0
2:Object
_id:6229cab0a21502465d2eccb2
OrderID:10248
ProductID:42
UnitPrice:9.8
Quantity:10
Discount:0


_id:6229cab0a21502465d2eccb2
OrderID:10248
ProductID:42
UnitPrice:9.8
Quantity:10
Discount:0
orders:Array
0:Object
_id:6229cab0a21502465d2eccae
OrderID:10248
ProductID:72
UnitPrice:34.8
Quantity:5
Discount:0
1:Object
_id:6229cab0a21502465d2eccb0
OrderID:10248
ProductID:11
UnitPrice:14
Quantity:12
Discount:0
2:Object
_id:6229cab0a21502465d2eccb2
OrderID:10248
ProductID:42
UnitPrice:9.8
Quantity:10
Discount:0


_id:6229cab0a21502465d2eccb3
OrderID:10250
ProductID:65
UnitPrice:16.8
Quantity:15
Discount:0.15
orders:Array
0:Object
_id:6229cab0a21502465d2eccb1
OrderID:10250
ProductID:41
UnitPrice:7.7
Quantity:10
Discount:0
1:Object
_id:6229cab0a21502465d2eccb3
OrderID:10250
ProductID:65
UnitPrice:16.8
Quantity:15
Discount:0.15
2:Object
_id:6229cab0a21502465d2eccb5
OrderID:10250
ProductID:51
UnitPrice:42.4
Quantity:35
Discount:0.15





_id:6229cab0a21502465d2eccaf
OrderID:10249
ProductID:14
UnitPrice:18.6
Quantity:9
Discount:0
orders:Array
0:Object
_id:6229cab0a21502465d2eccaf
OrderID:10249
ProductID:14
UnitPrice:18.6
Quantity:9
Discount:0
1:Object
_id:6229cab0a21502465d2eccb4
OrderID:10249
ProductID:51
UnitPrice:42.4
Quantity:40
Discount:0


_id:6229cab0a21502465d2eccb1
OrderID:10250
ProductID:41
UnitPrice:7.7
Quantity:10
Discount:0
orders:Array
0:Object
_id:6229cab0a21502465d2eccb1
OrderID:10250
ProductID:41
UnitPrice:7.7
Quantity:10
Discount:0
1:Object
_id:6229cab0a21502465d2eccb3
OrderID:10250
ProductID:65
UnitPrice:16.8
Quantity:15
Discount:0.15
2:Object
_id:6229cab0a21502465d2eccb5
OrderID:10250
ProductID:51
UnitPrice:42.4
Quantity:35
Discount:0.15

_id:6229cab0a21502465d2eccb0
OrderID:10248
ProductID:11
UnitPrice:14
Quantity:12
Discount:0
orders:Array
0:Object
_id:6229cab0a21502465d2eccae
OrderID:10248
ProductID:72
UnitPrice:34.8
Quantity:5
Discount:0
1:Object
_id:6229cab0a21502465d2eccb0
OrderID:10248
ProductID:11
UnitPrice:14
Quantity:12
Discount:0
2:Object
_id:6229cab0a21502465d2eccb2
OrderID:10248
ProductID:42
UnitPrice:9.8
Quantity:10
Discount:0



_id:6229cab0a21502465d2eccb4
OrderID:10249
ProductID:51
UnitPrice:42.4
Quantity:40
Discount:0
orders:Array
0:Object
_id:6229cab0a21502465d2eccaf
OrderID:10249
ProductID:14
UnitPrice:18.6
Quantity:9
Discount:0
1:Object
_id:6229cab0a21502465d2eccb4
OrderID:10249
ProductID:51
UnitPrice:42.4
Quantity:40
Discount:0



_id:6229cab0a21502465d2eccb5
OrderID:10250
ProductID:51
UnitPrice:42.4
Quantity:35
Discount:0.15
orders:Array
0:Object
_id:6229cab0a21502465d2eccb1
OrderID:10250
ProductID:41
UnitPrice:7.7
Quantity:10
Discount:0
1:Object
_id:6229cab0a21502465d2eccb3
OrderID:10250
ProductID:65
UnitPrice:16.8
Quantity:15
Discount:0.15
2:Object
_id:6229cab0a21502465d2eccb5
OrderID:10250
ProductID:51
UnitPrice:42.4
Quantity:35
Discount:0.15


_id:6229cab0a21502465d2eccb6
OrderID:10251
ProductID:57
UnitPrice:15.6
Quantity:15
Discount:0.05
orders:Array
0:Object
_id:6229cab0a21502465d2eccb6
OrderID:10251
ProductID:57
UnitPrice:15.6
Quantity:15
Discount:0.05
1:Object
_id:6229cab0a21502465d2eccb7
OrderID:10251
ProductID:22
UnitPrice:16.8
Quantity:6
Discount:0.05
2:Object
_id:6229cab0a21502465d2eccba
OrderID:10251
ProductID:65
UnitPrice:16.8
Quantity:20
Discount:0


_id:6229cab0a21502465d2eccb7
OrderID:10251
ProductID:22
UnitPrice:16.8
Quantity:6
Discount:0.05
orders:Array
0:Object
_id:6229cab0a21502465d2eccb6
OrderID:10251
ProductID:57
UnitPrice:15.6
Quantity:15
Discount:0.05
1:Object
_id:6229cab0a21502465d2eccb7
OrderID:10251
ProductID:22
UnitPrice:16.8
Quantity:6
Discount:0.05
2:Object
_id:6229cab0a21502465d2eccba
OrderID:10251
ProductID:65
UnitPrice:16.8
Quantity:20
Discount:0

_id:6229cab0a21502465d2eccb8
OrderID:10252
ProductID:20
UnitPrice:64.8
Quantity:40
Discount:0.05
orders:Array
0:Object
_id:6229cab0a21502465d2eccb8
OrderID:10252
ProductID:20
UnitPrice:64.8
Quantity:40
Discount:0.05
1:Object
_id:6229cab0a21502465d2eccb9
OrderID:10252
ProductID:33
UnitPrice:2
Quantity:25
Discount:0.05
2:Object
_id:6229cab0a21502465d2eccbc
OrderID:10252
ProductID:60
UnitPrice:27.2
Quantity:40
Discount:0


_id:6229cab0a21502465d2eccb9
OrderID:10252
ProductID:33
UnitPrice:2
Quantity:25
Discount:0.05
orders:Array
0:Object
_id:6229cab0a21502465d2eccb8
OrderID:10252
ProductID:20
UnitPrice:64.8
Quantity:40
Discount:0.05
1:Object
_id:6229cab0a21502465d2eccb9
OrderID:10252
ProductID:33
UnitPrice:2
Quantity:25
Discount:0.05
2:Object
_id:6229cab0a21502465d2eccbc
OrderID:10252
ProductID:60
UnitPrice:27.2
Quantity:40
Discount:0


_id:6229cab0a21502465d2eccba
OrderID:10251
ProductID:65
UnitPrice:16.8
Quantity:20
Discount:0
orders:Array
0:Object
_id:6229cab0a21502465d2eccb6
OrderID:10251
ProductID:57
UnitPrice:15.6
Quantity:15
Discount:0.05
1:Object
_id:6229cab0a21502465d2eccb7
OrderID:10251
ProductID:22
UnitPrice:16.8
Quantity:6
Discount:0.05
2:Object
_id:6229cab0a21502465d2eccba
OrderID:10251
ProductID:65
UnitPrice:16.8
Quantity:20
Discount:0


_id:6229cab0a21502465d2eccbb
OrderID:10253
ProductID:39
UnitPrice:14.4
Quantity:42
Discount:0
orders:Array
0:Object
_id:6229cab0a21502465d2eccbb
OrderID:10253
ProductID:39
UnitPrice:14.4
Quantity:42
Discount:0
1:Object
_id:6229cab0a21502465d2eccbd
OrderID:10253
ProductID:31
UnitPrice:10
Quantity:20
Discount:0
2:Object
_id:6229cab0a21502465d2eccbf
OrderID:10253
ProductID:49
UnitPrice:16
Quantity:40
Discount:0

_id:6229cab0a21502465d2eccbc
OrderID:10252
ProductID:60
UnitPrice:27.2
Quantity:40
Discount:0
orders:Array
0:Object
_id:6229cab0a21502465d2eccb8
OrderID:10252
ProductID:20
UnitPrice:64.8
Quantity:40
Discount:0.05
1:Object
_id:6229cab0a21502465d2eccb9
OrderID:10252
ProductID:33
UnitPrice:2
Quantity:25
Discount:0.05
2:Object
_id:6229cab0a21502465d2eccbc
OrderID:10252
ProductID:60
UnitPrice:27.2
Quantity:40
Discount:0

_id:6229cab0a21502465d2eccbd
OrderID:10253
ProductID:31
UnitPrice:10
Quantity:20
Discount:0
orders:Array
0:Object
_id:6229cab0a21502465d2eccbb
OrderID:10253
ProductID:39
UnitPrice:14.4
Quantity:42
Discount:0
1:Object
_id:6229cab0a21502465d2eccbd
OrderID:10253
ProductID:31
UnitPrice:10
Quantity:20
Discount:0
2:Object
_id:6229cab0a21502465d2eccbf
OrderID:10253
ProductID:49
UnitPrice:16
Quantity:40
Discount:0


_id:6229cab0a21502465d2eccbe
OrderID:10254
ProductID:24
UnitPrice:3.6
Quantity:15
Discount:0.15
orders:Array
0:Object
_id:6229cab0a21502465d2eccbe
OrderID:10254
ProductID:24
UnitPrice:3.6
Quantity:15
Discount:0.15
1:Object
_id:6229cab0a21502465d2eccc0
OrderID:10254
ProductID:55
UnitPrice:19.2
Quantity:21
Discount:0.15
2:Object
_id:6229cab0a21502465d2eccc3
OrderID:10254
ProductID:74
UnitPrice:8
Quantity:21
Discount:0


_id:6229cab0a21502465d2eccbf
OrderID:10253
ProductID:49
UnitPrice:16
Quantity:40
Discount:0
orders:Array
0:Object
_id:6229cab0a21502465d2eccbb
OrderID:10253
ProductID:39
UnitPrice:14.4
Quantity:42
Discount:0
1:Object
_id:6229cab0a21502465d2eccbd
OrderID:10253
ProductID:31
UnitPrice:10
Quantity:20
Discount:0
2:Object
_id:6229cab0a21502465d2eccbf
OrderID:10253
ProductID:49
UnitPrice:16
Quantity:40
Discount:0


_id:6229cab0a21502465d2eccc0
OrderID:10254
ProductID:55
UnitPrice:19.2
Quantity:21
Discount:0.15
orders:Array
0:Object
_id:6229cab0a21502465d2eccbe
OrderID:10254
ProductID:24
UnitPrice:3.6
Quantity:15
Discount:0.15
1:Object
_id:6229cab0a21502465d2eccc0
OrderID:10254
ProductID:55
UnitPrice:19.2
Quantity:21
Discount:0.15
2:Object
_id:6229cab0a21502465d2eccc3
OrderID:10254
ProductID:74
UnitPrice:8
Quantity:21
Discount:0

_id:6229cab0a21502465d2eccc1
OrderID:10255
ProductID:16
UnitPrice:13.9
Quantity:35
Discount:0
orders:Array
0:Object
_id:6229cab0a21502465d2eccc1
OrderID:10255
ProductID:16
UnitPrice:13.9
Quantity:35
Discount:0
1:Object
_id:6229cab0a21502465d2eccc2
OrderID:10255
ProductID:59
UnitPrice:44
Quantity:30
Discount:0
2:Object
_id:6229cab0a21502465d2eccc4
OrderID:10255
ProductID:36
UnitPrice:15.2
Quantity:25
Discount:0
3:Object
_id:6229cab0a21502465d2eccc5
OrderID:10255
ProductID:2
UnitPrice:15.2
Quantity:20
Discount:0





